{
  "title": "Present",
  "status": "ready",
  "context": {
    "bannerTitle": "El día a día de <abbr title='Santander Consumer Finance Global Services'>SCFGS</abbr>",
    "bannerImage": "present.jpg",
    "rawTextContent": [
      {
        "text": "Artículos, entrevistas, reportajes, informes, casos de éxito y mucho más. En nuestro Blog de actualidad podrás acercarte al día a día de <abbr title='Santander Consumer Finance Global Services'>SCFGS</abbr> y no per-derte ninguna de nuestras novedades.",
        "delay": 50
      }
    ]
  }
}
