{
  "title": "Address",
  "status": "ready",
  "context": {
    "link": "Leer artículo",
    "href": "#",
    "src": "address.jpg",
    "buttonTagName": "a",
    "buttonText": "¿Hablamos?",
    "buttonAttributes": "href=\"#\""
  }
}
