{
  "title": "Banner",
  "status": "ready",
  "context": {
    "bannerTitle": "Comprometidos con la sociedad",
    "bannerImage": "about.jpg"
  },
  "variants": [
    {
      "name": "Banner Large",
      "status": "ready",
      "context": {
        "modifier": "banner--large",
        "bannerTitle": false,
        "bannerImage": "article.jpg"
      }
    }
  ]
}
