{
  "title": "Counters",
  "status": "ready",
  "context": {
    "counters": [
      {
        "icon": "delivery",
        "text": "Países",
        "counter": 12,
        "counterDuration": 5,
        "counterId": "countries",
        "attributes": "data-aos='fade-up' data-aos-duration='400'"
      },
      {
        "icon": "delivery",
        "text": "Proyectos ejecutados",
        "counter": 423,
        "counterDuration": 3.3,
        "counterId": "projects",
        "attributes": "data-aos='fade-up' data-aos-duration='400' data-aos-delay='50'"
      },
      {
        "icon": "delivery",
        "text": "Horas desarrolladas",
        "counter": 871549,
        "counterDuration": 3.5,
        "counterId": "hours",
        "attributes": "data-aos='fade-up' data-aos-duration='400' data-aos-delay='100'"
      },
      {
        "icon": "delivery",
        "text": "Evolución de facturación",
        "counter": 60,
        "counterDuration": 3.1,
        "counterId": "evolution",
        "suffix": "M €",
        "attributes": "data-aos='fade-up' data-aos-duration='400' data-aos-delay='150'"
      }
    ]
  }
}
