{
  "title": "Work",
  "status": "ready",
  "context": {
    "bannerTitle": "Únete al equipo",
    "bannerImage": "work.jpg",
    "rawTextContent": [
      {
        "text": "En el Grupo Santander el papel de la tecnología es fundamental. No solo nos estamos transformando, sino que también estamos impulsando la evolución bancaria como líderes en el sector. Por esto queremos que, trabajando con nosotros, seas tú mismo en un entorno abierto y colaborativo, impulsado por la tecnología, innovador y comprometido con un buen equilibrio entre el trabajo y la vida",
        "delay": 50
      },
      {
        "text": "Con nosotros tendrás la oportunidad de trabajar de forma remota y desarrollar tus habilidades tecnológicas en proyectos que ayudarán a mejorar la vida de las empresas y las personas. Si aportas tus conocimientos, pasión y curiosidad al trabajo, seguramente podremos desarrollar una mejor tecnología juntos. ¿Hablamos?",
        "delay": 100
      }
    ],
    "titleAttributes": "data-aos='fade-in' data-aos-duration='350'",
    "titleTagName": "h2",
    "titleContent": "Trabaja con nosotros",
    "cards": [
      {
        "title": "Job-posting de LinkedIn",
        "link": "Acceder",
        "href": "#",
        "src": "work-1.jpg",
        "cardAttributes": "data-aos='fade-up' data-aos-duration='400'"
      },
      {
        "title": "Santander Taleo",
        "link": "Acceder",
        "href": "#",
        "src": "work-2.jpg",
        "cardAttributes": "data-aos='fade-up' data-aos-duration='400' data-aos-delay='100'"
      }
    ]
  }
}
