{
  "title": "Ending",
  "status": "ready",
  "context": {
    "endingText": [
      {
        "text": "SCF comercializa productos sencillos cuya distribución se basa en las capacidades de venta de los canales directos e indirectos.",
        "delay": 0
      },
      {
        "text": "SCF es una factoría de productos y servicios orientada al mass-market.",
        "delay": 50
      }
    ]
  }
}
