{
  "title": "Related",
  "status": "ready",
  "context": {
    "date": "dd/mm/aaaa",
    "title": "Adapta tu negocio a la pandemia",
    "link": "Leer artículo",
    "href": "#",
    "src": "related.jpg"
  }
}
