{
  "title": "Paraghap",
  "status": "ready",
  "context": {
    "paragraphs": [
      "Lorem ipsum dolor sit amet, consectetur adipisicing elit. Nostrum animi, adipisci quasi ex vel, architecto quaerat inventore iste quam quod, autem excepturi consequatur dolores vitae culpa unde. Ab, sunt quos? Lorem ipsum dolor sit amet consectetur adipisicing elit. Illo quod quas aliquid quos, hic animi deserunt eum adipisci perspiciatis suscipit eveniet rerum impedit consequuntur. Quos perferendis placeat provident sed tempore.",
      "Lorem ipsum dolor sit amet, consectetur adipisicing elit. Nostrum animi, adipisci quasi ex vel, architecto quaerat inventore iste quam quod, autem excepturi consequatur dolores vitae culpa unde. Ab, sunt quos? Lorem ipsum dolor sit amet consectetur adipisicing elit. Illo quod quas aliquid quos, hic animi deserunt eum adipisci perspiciatis suscipit eveniet rerum impedit consequuntur."
    ]
  }
}
